Cargo Car Rental	149 North Crossing	moscow	null	null	russia	498-350-5371
Lux Car Rental	208 Maple Road	cairo	null	null	egypt	275-630-2309
Fast Car Rental	376 Oak Crossing	lagos	null	null	nigeria	587-635-1477
Sport Car Rental	167 Grove Road	greater johannesburg	null	null	south africa	377-750-7883
Speedy Car Rental	14 South Lane	havana	null	null	cuba	952-515-5946
Speedy Car Rental	145 Main Road	moscow	null	null	russia	924-736-3743
Safety Car Rental	193 South Lane	memphis	tennessee	37501	us	404-702-6504
Fast Car Rental	205 Maple Drive	lagos	null	null	nigeria	647-263-8526
Safety Car Rental	43 Main Circle	kansas city	missouri	64101	us	889-598-7261
Cargo Car Rental	274 Birch Road	lagos	null	null	nigeria	293-281-9521
Sport Car Rental	488 Birch Lane	cairo	null	null	egypt	801-530-3769
Fast Car Rental	354 East Street	worcester	massachusetts	1609	us	703-689-3710
Speedy Car Rental	192 South Drive	moscow	null	null	russia	264-475-6089
Electric Car Rental	113 Elm Crossing	ackland	null	null	new zealand	289-678-2506
Speedy Car Rental	60 West Street	jacksonville	florida	32099	us	839-378-9981
